!****************************************************************+
|  Punkty:                                                       |
|                                                                | 
|  Nastepne karty:                                               |
|  _________                                                     |
|  |       |                                                     |
|  |_______|                                                     |
|  _________                                                     |
|  |       |                                                     |
|  |_______|                                                     |
|  _________                                                     |
|  |       |                                                     |
|  |_______|                                                     |
|  _________                                                     |
|  |       |                                                     |
|  |_______|                                                     |
|                                                                |
|  Aktualna karta    z 12:                                       |
|  _________                                                     |
|  |       |                                                     |
|  |_______|                                                     |
|                                                                |
|  Nowa karta                                                    |
|                                                                |
|                                                                |
`****************************************************************=